# Wavefront Obj file
# 
# verts: 40 uv-s: 60
mtllib columna tex.mtl

g Base Columna
#pivot 0.000000 0.000000 0.000000

v 0.000528 0.007613 1.159119
v 0.694108 0.007613 0.005350
v -0.594082 0.007613 -0.007869
v 0.099498 0.007613 -1.161639
v 0.000528 0.211586 1.159119
v 0.014384 0.212731 0.805256
v 0.497790 0.212731 0.001110
v 0.694108 0.211586 0.005350
v -0.397764 0.212731 -0.003629
v -0.594082 0.211586 -0.007869
v 0.085642 0.212731 -0.807775
v 0.099498 0.211586 -1.161639
v 0.497790 0.320960 0.001110
v 0.014384 0.320960 0.805256
v 0.085642 0.320960 -0.807775
v -0.397764 0.320960 -0.003629
# 16 positions

vt 0.532647 0.373308
vt 0.645016 0.363305
vt 0.594492 0.459376
vt 0.484094 0.468979
vt 0.476907 0.148779
vt 0.500849 0.164700
vt 0.525217 0.252094
vt 0.518847 0.266108
vt 0.593679 0.141213
vt 0.587701 0.155555
vt 0.638538 0.257789
vt 0.613979 0.242382
vt 0.468794 0.042907
vt 0.582534 0.034268
vt 0.539979 0.173431
vt 0.581811 0.193999
vt 0.575392 0.236638
vt 0.534035 0.215842
vt 0.690083 0.024761
vt 0.700213 0.131347
vt 0.361246 0.052413
vt 0.370373 0.158644
# 22 texture coordinates

vn 0.000000 -1.000000 0.000000
vn 0.000000 -1.000000 0.000000
vn 0.000000 -1.000000 0.000000
vn 0.000000 -1.000000 0.000000
vn -0.005897 0.999978 0.003005
vn -0.005897 0.999978 0.003005
vn -0.005897 0.999978 0.003005
vn -0.005897 0.999978 0.003005
vn 0.005758 0.999977 0.003461
vn 0.005758 0.999977 0.003461
vn 0.005758 0.999977 0.003461
vn 0.005758 0.999977 0.003461
vn 0.005897 0.999978 -0.003005
vn 0.005897 0.999978 -0.003005
vn 0.005897 0.999978 -0.003005
vn 0.005897 0.999978 -0.003005
vn -0.005758 0.999977 -0.003461
vn -0.005758 0.999977 -0.003461
vn -0.005758 0.999977 -0.003461
vn -0.005758 0.999977 -0.003461
vn 0.857061 0.000000 0.515216
vn 0.857061 0.000000 0.515216
vn 0.857061 0.000000 0.515216
vn 0.857061 0.000000 0.515216
vn 0.000000 1.000000 0.000000
vn 0.000000 1.000000 0.000000
vn 0.000000 1.000000 0.000000
vn 0.000000 1.000000 0.000000
vn -0.857061 0.000000 -0.515215
vn -0.857061 0.000000 -0.515215
vn -0.857061 0.000000 -0.515215
vn -0.857061 0.000000 -0.515215
vn 0.891007 0.000000 -0.453990
vn 0.891007 0.000000 -0.453990
vn 0.891007 0.000000 -0.453990
vn 0.891007 0.000000 -0.453990
vn -0.891007 0.000000 0.453990
vn -0.891007 0.000000 0.453990
vn -0.891007 0.000000 0.453990
vn -0.891007 0.000000 0.453990
vn 0.857061 0.000000 0.515215
vn 0.857061 0.000000 0.515215
vn 0.857061 0.000000 0.515215
vn 0.857061 0.000000 0.515215
vn 0.891006 0.000000 -0.453991
vn 0.891006 0.000000 -0.453991
vn 0.891006 0.000000 -0.453991
vn 0.891006 0.000000 -0.453991
vn -0.857061 0.000000 -0.515215
vn -0.857061 0.000000 -0.515215
vn -0.857061 0.000000 -0.515215
vn -0.857061 0.000000 -0.515215
vn -0.891006 0.000000 0.453991
vn -0.891006 0.000000 0.453991
vn -0.891006 0.000000 0.453991
vn -0.891006 0.000000 0.453991
# 56 normals

usemtl initialShadingGroup
s 1
f 3/1/1 4/2/2 2/3/3 1/4/4
s 2
f 5/5/5 6/6/6 9/7/7 10/8/8
s 3
f 6/6/9 5/5/10 8/9/11 7/10/12
s 4
f 7/10/13 8/9/14 12/11/15 11/12/16
s 5
f 10/8/17 9/7/18 11/12/19 12/11/20
s 6
f 1/13/21 2/14/22 8/9/23 5/5/24
s 7
f 14/15/25 13/16/26 15/17/27 16/18/28
s 8
f 10/8/29 12/11/30 4/2/31 3/1/32
s 9
f 2/14/33 4/19/34 12/20/35 8/9/36
s 10
f 3/21/37 1/13/38 5/5/39 10/22/40
s 11
f 6/6/41 7/10/42 13/16/43 14/15/44
s 12
f 7/10/45 11/12/46 15/17/47 13/16/48
s 13
f 11/12/49 9/7/50 16/18/51 15/17/52
s 14
f 9/7/53 6/6/54 14/15/55 16/18/56

g Columna Medio
#pivot 0.000000 0.000000 0.000000

v 0.014362 0.312079 0.802831
v 0.499765 0.312079 -0.004637
v 0.014362 1.770943 0.802831
v 0.499765 1.770943 -0.004637
v -0.401778 1.770943 -0.013889
v 0.083626 1.770943 -0.821357
v -0.401778 0.312079 -0.013889
v 0.083626 0.312079 -0.821357
# 8 positions

vt 0.180826 0.429277
vt 0.316853 0.429277
vt 0.316853 0.565303
vt 0.180826 0.565303
vt 0.316853 0.701330
vt 0.180826 0.701330
vt 0.316853 0.837356
vt 0.180826 0.837356
vt 0.316853 0.973382
vt 0.180826 0.973382
vt 0.452879 0.429277
vt 0.452879 0.565303
vt 0.044800 0.429277
vt 0.044800 0.565303
# 14 texture coordinates

vn 0.857061 0.000000 0.515215
vn 0.857061 0.000000 0.515215
vn 0.857061 0.000000 0.515215
vn 0.857061 0.000000 0.515215
vn 0.000000 1.000000 0.000000
vn 0.000000 1.000000 0.000000
vn 0.000000 1.000000 0.000000
vn 0.000000 1.000000 0.000000
vn -0.857060 0.000000 -0.515216
vn -0.857060 0.000000 -0.515216
vn -0.857060 0.000000 -0.515216
vn -0.857060 0.000000 -0.515216
vn 0.000000 -1.000000 0.000000
vn 0.000000 -1.000000 0.000000
vn 0.000000 -1.000000 0.000000
vn 0.000000 -1.000000 0.000000
vn 0.891007 0.000000 -0.453990
vn 0.891007 0.000000 -0.453990
vn 0.891007 0.000000 -0.453990
vn 0.891007 0.000000 -0.453990
vn -0.891006 0.000000 0.453991
vn -0.891006 0.000000 0.453991
vn -0.891006 0.000000 0.453991
vn -0.891006 0.000000 0.453991
# 24 normals

usemtl blinn1SG
s 15
f 17/23/57 18/24/58 20/25/59 19/26/60
s 16
f 19/26/61 20/25/62 22/27/63 21/28/64
s 17
f 21/28/65 22/27/66 24/29/67 23/30/68
s 18
f 23/30/69 24/29/70 18/31/71 17/32/72
s 19
f 18/24/73 24/33/74 22/34/75 20/25/76
s 20
f 23/35/77 17/23/78 19/26/79 21/36/80

g Columna Top
#pivot 0.000000 0.000000 0.000000

v -0.005156 2.131796 1.249619
v 0.743491 2.131796 0.004244
v -0.646976 2.131796 -0.010024
v 0.101671 2.131796 -1.255398
v 0.011422 1.888324 0.818826
v -0.005156 1.884067 1.249619
v 0.743491 1.884067 0.004244
v 0.504517 1.888324 -0.001438
v -0.646976 1.884067 -0.010024
v -0.408003 1.888324 -0.004342
v 0.085092 1.888324 -0.824605
v 0.101671 1.884067 -1.255398
v 0.085092 1.761540 -0.824605
v -0.408003 1.761540 -0.004342
v 0.504517 1.761540 -0.001438
v 0.011422 1.761540 0.818826
# 16 positions

vt 0.704408 0.614831
vt 0.821571 0.591713
vt 0.903620 0.675066
vt 0.784146 0.699715
vt 0.803983 0.914065
vt 0.781297 0.952000
vt 0.806711 0.816650
vt 0.820840 0.827626
vt 0.681061 0.493665
vt 0.708263 0.470843
vt 0.785431 0.455805
vt 0.798222 0.470820
vt 0.907942 0.936988
vt 0.894156 0.922483
vt 0.910910 0.825621
vt 0.936279 0.798377
vt 0.859524 0.843391
vt 0.891727 0.865561
vt 0.857222 0.897347
vt 0.821921 0.870683
vt 0.912211 0.448786
vt 0.935559 0.569767
vt 0.567072 0.515698
vt 0.590420 0.636777
# 24 texture coordinates

vn 0.000000 1.000000 0.000000
vn 0.000000 1.000000 0.000000
vn 0.000000 1.000000 0.000000
vn 0.000000 1.000000 0.000000
vn 0.018029 -0.999795 -0.009186
vn 0.018029 -0.999795 -0.009186
vn 0.018029 -0.999795 -0.009186
vn 0.018029 -0.999795 -0.009186
vn -0.017559 -0.999790 -0.010556
vn -0.017559 -0.999790 -0.010556
vn -0.017559 -0.999790 -0.010556
vn -0.017559 -0.999790 -0.010556
vn -0.018029 -0.999795 0.009186
vn -0.018029 -0.999795 0.009186
vn -0.018029 -0.999795 0.009186
vn -0.018029 -0.999795 0.009186
vn 0.017559 -0.999790 0.010556
vn 0.017559 -0.999790 0.010556
vn 0.017559 -0.999790 0.010556
vn 0.017559 -0.999790 0.010556
vn 0.857061 0.000000 0.515215
vn 0.857061 0.000000 0.515215
vn 0.857061 0.000000 0.515215
vn 0.857061 0.000000 0.515215
vn -0.857061 0.000000 -0.515215
vn -0.857061 0.000000 -0.515215
vn -0.857061 0.000000 -0.515215
vn -0.857061 0.000000 -0.515215
vn 0.000000 -1.000000 0.000000
vn 0.000000 -1.000000 0.000000
vn 0.000000 -1.000000 0.000000
vn 0.000000 -1.000000 0.000000
vn 0.891006 0.000000 -0.453991
vn 0.891006 0.000000 -0.453991
vn 0.891006 0.000000 -0.453991
vn 0.891006 0.000000 -0.453991
vn -0.891007 0.000000 0.453990
vn -0.891007 0.000000 0.453990
vn -0.891007 0.000000 0.453990
vn -0.891007 0.000000 0.453990
vn -0.857061 0.000000 -0.515216
vn -0.857061 0.000000 -0.515216
vn -0.857061 0.000000 -0.515216
vn -0.857061 0.000000 -0.515216
vn 0.891006 0.000000 -0.453991
vn 0.891006 0.000000 -0.453991
vn 0.891006 0.000000 -0.453991
vn 0.891006 0.000000 -0.453991
vn 0.857061 0.000000 0.515215
vn 0.857061 0.000000 0.515215
vn 0.857061 0.000000 0.515215
vn 0.857061 0.000000 0.515215
vn -0.891007 0.000000 0.453991
vn -0.891007 0.000000 0.453991
vn -0.891007 0.000000 0.453991
vn -0.891007 0.000000 0.453991
# 56 normals

usemtl initialShadingGroup
s 21
f 25/37/81 26/38/82 28/39/83 27/40/84
s 22
f 29/41/85 30/42/86 33/43/87 34/44/88
s 23
f 30/45/89 29/46/90 32/47/91 31/48/92
s 24
f 31/49/93 32/50/94 35/51/95 36/52/96
s 25
f 34/44/97 33/43/98 36/52/99 35/51/100
s 26
f 30/45/101 31/48/102 26/38/103 25/37/104
s 27
f 27/40/105 28/39/106 36/52/107 33/43/108
s 28
f 38/53/109 37/54/110 39/55/111 40/56/112
s 29
f 31/48/113 36/57/114 28/58/115 26/38/116
s 30
f 33/59/117 30/45/118 25/37/119 27/60/120
s 31
f 34/44/121 35/51/122 37/54/123 38/53/124
s 32
f 35/51/125 32/50/126 39/55/127 37/54/128
s 33
f 32/50/129 29/41/130 40/56/131 39/55/132
s 34
f 29/41/133 34/44/134 38/53/135 40/56/136

# 34 faces
