# This file uses centimeters as units for non-parametric coordinates.

mtllib Panel_2.mtl
g default
v -0.574080 0.002941 0.000747
v 0.602232 0.002941 0.000747
v -0.574080 0.084048 0.000747
v 0.602232 0.084048 0.000747
v -0.574080 1.826986 0.000747
v 0.602232 1.826986 0.000747
v -0.574080 1.918522 0.000747
v 0.602232 1.918522 0.000747
v -0.574080 1.918522 -0.066998
v 0.602232 1.918522 -0.066998
v -0.574080 1.826986 -0.066998
v 0.602232 1.826986 -0.066998
v -0.574080 0.084048 -0.066998
v 0.602232 0.084048 -0.066998
v -0.574080 0.002941 -0.066998
v 0.602232 0.002941 -0.066998
v -0.574080 0.002941 0.065587
v 0.602232 0.002941 0.065587
v 0.602232 0.084048 0.065587
v -0.574080 0.084048 0.065587
v -0.574080 1.826986 0.065587
v 0.602232 1.826986 0.065587
v 0.602232 1.918522 0.065587
v -0.574080 1.918522 0.065587
vt 0.643929 0.615484
vt 0.781740 0.612211
vt 0.781928 0.620148
vt 0.644118 0.623421
vt 0.643749 0.607888
vt 0.781559 0.604615
vt 0.171692 0.651874
vt 0.171692 0.514024
vt 0.179630 0.514024
vt 0.179630 0.651874
vt 0.187229 0.514024
vt 0.187229 0.651874
vt 0.083567 0.627552
vt 0.083567 0.765402
vt 0.075968 0.765402
vt 0.075968 0.627552
vt 0.024943 0.761171
vt 0.024943 0.623322
vt 0.032542 0.623322
vt 0.032542 0.761171
vt 0.122961 0.449049
vt 0.130905 0.449049
vt 0.130907 0.458554
vt 0.122968 0.458554
vt 0.130905 0.664266
vt 0.122968 0.664266
vt 0.115369 0.458554
vt 0.115374 0.449049
vt 0.130906 0.673761
vt 0.122973 0.673761
vt 0.115363 0.673761
vt 0.115366 0.664266
vt 0.021004 0.379123
vt 0.028949 0.379123
vt 0.028942 0.388628
vt 0.021003 0.388628
vt 0.036536 0.379123
vt 0.036540 0.388628
vt 0.028943 0.594333
vt 0.021005 0.594333
vt 0.028936 0.603828
vt 0.021003 0.603828
vt 0.036543 0.594333
vt 0.036547 0.603828
vt 0.444332 0.730133
vt 0.444332 0.592285
vt 0.453837 0.592285
vt 0.453837 0.730133
vt 0.487779 0.974832
vt 0.487779 0.836983
vt 0.693477 0.836983
vt 0.693477 0.974832
vt 0.642558 0.557748
vt 0.780369 0.554475
vt 0.780594 0.563967
vt 0.642783 0.567240
vt 0.566226 0.780121
vt 0.566226 0.642272
vt 0.575720 0.642272
vt 0.575720 0.780121
vt 0.781419 0.642272
vt 0.781419 0.780121
vt 0.790923 0.642272
vt 0.790923 0.780121
vn 0.000000 0.000000 1.000000
vn 0.000000 0.000000 1.000000
vn 0.000000 0.000000 1.000000
vn 0.000000 0.000000 1.000000
vn 0.000000 0.000000 1.000000
vn 0.000000 0.000000 1.000000
vn 0.000000 0.000000 1.000000
vn 0.000000 0.000000 1.000000
vn 0.000000 0.000000 1.000000
vn 0.000000 0.000000 1.000000
vn 0.000000 0.000000 1.000000
vn 0.000000 0.000000 1.000000
vn 0.000000 1.000000 0.000000
vn 0.000000 1.000000 0.000000
vn 0.000000 1.000000 0.000000
vn 0.000000 1.000000 0.000000
vn 0.000000 0.000000 -1.000000
vn 0.000000 0.000000 -1.000000
vn 0.000000 0.000000 -1.000000
vn 0.000000 0.000000 -1.000000
vn 0.000000 0.000000 -1.000000
vn 0.000000 0.000000 -1.000000
vn 0.000000 0.000000 -1.000000
vn 0.000000 0.000000 -1.000000
vn 0.000000 -1.000000 0.000000
vn 0.000000 -1.000000 0.000000
vn 0.000000 -1.000000 0.000000
vn 0.000000 -1.000000 0.000000
vn 1.000000 0.000000 0.000000
vn 1.000000 0.000000 0.000000
vn 1.000000 0.000000 0.000000
vn 1.000000 0.000000 0.000000
vn 1.000000 0.000000 0.000000
vn 1.000000 0.000000 0.000000
vn 1.000000 0.000000 0.000000
vn 1.000000 0.000000 0.000000
vn -1.000000 0.000000 0.000000
vn -1.000000 0.000000 0.000000
vn -1.000000 0.000000 0.000000
vn -1.000000 0.000000 0.000000
vn -1.000000 0.000000 0.000000
vn -1.000000 0.000000 0.000000
vn -1.000000 0.000000 0.000000
vn -1.000000 0.000000 0.000000
vn 0.000000 -1.000000 0.000000
vn 0.000000 -1.000000 0.000000
vn 0.000000 -1.000000 0.000000
vn 0.000000 -1.000000 0.000000
vn 1.000000 0.000000 0.000000
vn 1.000000 0.000000 0.000000
vn 1.000000 0.000000 0.000000
vn 1.000000 0.000000 0.000000
vn 0.000000 1.000000 0.000000
vn 0.000000 1.000000 0.000000
vn 0.000000 1.000000 0.000000
vn 0.000000 1.000000 0.000000
vn -1.000000 0.000000 0.000000
vn -1.000000 0.000000 0.000000
vn -1.000000 0.000000 0.000000
vn -1.000000 0.000000 0.000000
vn 0.000000 -1.000000 0.000000
vn 0.000000 -1.000000 0.000000
vn 0.000000 -1.000000 0.000000
vn 0.000000 -1.000000 0.000000
vn 1.000000 0.000000 0.000000
vn 1.000000 0.000000 0.000000
vn 1.000000 0.000000 0.000000
vn 1.000000 0.000000 0.000000
vn 0.000000 1.000000 0.000000
vn 0.000000 1.000000 0.000000
vn 0.000000 1.000000 0.000000
vn 0.000000 1.000000 0.000000
vn -1.000000 0.000000 0.000000
vn -1.000000 0.000000 0.000000
vn -1.000000 0.000000 0.000000
vn -1.000000 0.000000 0.000000
s off
g P_2 Parte_2
usemtl initialShadingGroup
f 17/45/1 18/46/2 19/47/3 20/48/4
f 3/49/5 4/50/6 6/51/7 5/52/8
f 21/53/9 22/54/10 23/55/11 24/56/12
f 7/1/13 8/2/14 10/3/15 9/4/16
s 1
f 9/57/17 10/58/18 12/59/19 11/60/20
f 11/60/20 12/59/19 14/61/21 13/62/22
f 13/62/22 14/61/21 16/63/23 15/64/24
s off
f 15/7/25 16/8/26 2/9/27 1/10/28
s 2
f 2/21/29 16/22/30 14/23/31 4/24/32
f 4/24/32 14/23/31 12/25/33 6/26/34
f 6/26/34 12/25/33 10/29/35 8/30/36
s 3
f 15/33/37 1/34/38 3/35/39 13/36/40
f 13/36/40 3/35/39 5/39/41 11/40/42
f 11/40/42 5/39/41 7/41/43 9/42/44
s off
f 1/10/45 2/9/46 18/11/47 17/12/48
f 2/21/49 4/24/50 19/27/51 18/28/52
f 4/13/53 3/14/54 20/15/55 19/16/56
f 3/35/57 1/34/58 17/37/59 20/38/60
f 5/17/61 6/18/62 22/19/63 21/20/64
f 6/26/65 8/30/66 23/31/67 22/32/68
f 8/2/69 7/1/70 24/5/71 23/6/72
f 7/41/73 5/39/74 21/43/75 24/44/76
g default
v -0.574080 0.062679 0.048440
v 0.602232 0.062679 0.048440
v -0.574080 1.894193 0.048440
v 0.602232 1.894193 0.048440
v -0.574080 1.894193 -0.026700
v 0.602232 1.894193 -0.026700
v -0.574080 0.062679 -0.026700
v 0.602232 0.062679 -0.026700
vt 0.841934 0.228504
vt 0.982993 0.228504
vt 0.982993 0.454295
vt 0.841934 0.454295
vt 0.982993 0.454295
vt 0.841934 0.454295
vt 0.982993 0.228504
vt 0.841934 0.228504
vn 0.000000 0.000000 1.000000
vn 0.000000 0.000000 1.000000
vn 0.000000 0.000000 1.000000
vn 0.000000 0.000000 1.000000
vn 0.000000 1.000000 0.000000
vn 0.000000 1.000000 0.000000
vn 0.000000 1.000000 0.000000
vn 0.000000 1.000000 0.000000
vn 0.000000 0.000000 -1.000000
vn 0.000000 0.000000 -1.000000
vn 0.000000 0.000000 -1.000000
vn 0.000000 0.000000 -1.000000
vn 0.000000 -1.000000 0.000000
vn 0.000000 -1.000000 0.000000
vn 0.000000 -1.000000 0.000000
vn 0.000000 -1.000000 0.000000
vn 1.000000 -0.000000 0.000000
vn 1.000000 -0.000000 0.000000
vn 1.000000 -0.000000 0.000000
vn 1.000000 -0.000000 0.000000
vn -1.000000 0.000000 0.000000
vn -1.000000 0.000000 0.000000
vn -1.000000 0.000000 0.000000
vn -1.000000 0.000000 0.000000
s off
g Parte_2 P_2_Luz
usemtl blinn1SG
f 25/65/77 26/66/78 28/67/79 27/68/80
f 27/68/81 28/67/82 30/69/83 29/70/84
f 29/70/85 30/69/86 32/71/87 31/72/88
f 31/72/89 32/71/90 26/66/91 25/65/92
f 26/66/93 32/71/94 30/69/95 28/67/96
f 31/72/97 25/65/98 27/68/99 29/70/100
